<?xml version="1.0" encoding="UTF-8" standalone="no"?>
<svg
   width="167.6378"
   height="168.63551"
   viewBox="0 0 167.6378 168.63551"
   fill="none"
   version="1.1"
   id="svg458"
   sodipodi:docname="sound_pink_unactive.svg"
   inkscape:version="1.2.1 (9c6d41e4, 2022-07-14)"
   xmlns:inkscape="http://www.inkscape.org/namespaces/inkscape"
   xmlns:sodipodi="http://sodipodi.sourceforge.net/DTD/sodipodi-0.dtd"
   xmlns="http://www.w3.org/2000/svg"
   xmlns:svg="http://www.w3.org/2000/svg">
  <defs
     id="defs462" />
  <sodipodi:namedview
     id="namedview460"
     pagecolor="#ffffff"
     bordercolor="#000000"
     borderopacity="0.25"
     inkscape:showpageshadow="2"
     inkscape:pageopacity="0.0"
     inkscape:pagecheckerboard="0"
     inkscape:deskcolor="#d1d1d1"
     showgrid="false"
     inkscape:zoom="1.1456311"
     inkscape:cx="14.838983"
     inkscape:cy="103"
     inkscape:window-width="1309"
     inkscape:window-height="456"
     inkscape:window-x="0"
     inkscape:window-y="25"
     inkscape:window-maximized="0"
     inkscape:current-layer="svg458" />
  <path
     d="M 167.007,134.916 C 166.651,151.985 153.207,165.886 136.254,166.676 86.4639,168.995 56.2655,169.198 30.562,167.59 14.9714,166.615 2.8955899,153.823 1.9409099,138.138 -0.38579108,99.913098 -0.76431008,70.843198 1.5934199,33.415598 2.6252999,17.034998 15.9516,4.2671077 32.2423,3.3465277 75.0267,0.9287797 108.931,-1.5497423 140.53,1.2233677 155.684,2.5532377 166.626,15.685598 166.995,30.982998 167.77,63.071698 167.926,90.941598 167.007,134.916 Z"
     fill="#f5ebde"
     id="path452" />
  <path
     d="M 122.297,55.283198 C 128.088,63.864998 136.534,86.417998 123.986,107.977"
     stroke="#eca1c5"
     stroke-width="8"
     stroke-linecap="round"
     id="path454" />
  <path
     d="M 41.7479,92.889998 C 42.3056,103.208 49.277,99.024998 62.1045,99.024998 72.1435,99.024998 95.568,121.334 102.539,121.892 109.511,122.449 108.674,37.397398 99.472,38.512798 90.269,39.628298 71.028,69.745098 62.1045,68.908498 53.181,68.071898 41.7479,68.071898 41.7479,72.533698 41.7479,76.995398 41.1902,82.572998 41.7479,92.889998 Z"
     fill="#eca1c5"
     id="path456" />
</svg>
