<?xml version="1.0" encoding="UTF-8" standalone="no"?>
<svg
   width="167.6378"
   height="168.63553"
   viewBox="0 0 167.6378 168.63553"
   fill="none"
   version="1.1"
   id="svg144"
    xmlns="http://www.w3.org/2000/svg">
  <defs
     id="defs148" />
  
  <path
     d="M 167.007,134.916 C 166.651,151.985 153.207,165.886 136.254,166.676 86.463899,168.995 56.265499,169.198 30.561999,167.59 14.971399,166.615 2.8955899,153.823 1.9409099,138.138 -0.38579107,99.913098 -0.76431007,70.843198 1.5934199,33.415598 2.6252999,17.034998 15.951599,4.2671077 32.242299,3.3465277 75.026699,0.9287797 108.931,-1.5497423 140.53,1.2233677 155.684,2.5532377 166.626,15.685598 166.995,30.982998 167.77,63.071698 167.926,90.941598 167.007,134.916 Z"
     fill="#eca1c5"
     id="path132" />
  <path
     d="M 165.264,22.768498 C 134.33,-3.1683023 100.591,-4.4449923 64.979999,11.110298 25.915899,28.093998 -3.5148301,56.550198 0.33937093,102.494 3.4461099,139.316 15.438999,170.561 48.109899,192.063 69.990699,206.476 92.873699,209.903 116.759,203.452 138.105,197.674 158.449,188.233 175.72,173.45 223.223,132.814 210.219,60.483098 165.264,22.768498 Z"
     id="path134" />
  <path
     d="M 132.297,78.281198 C 138.088,86.862998 146.534,109.416 133.986,130.975"
     stroke="#eca1c5"
     stroke-width="8"
     stroke-linecap="round"
     id="path136" />
  <path
     d="M 51.747899,115.888 C 52.305599,126.206 59.276999,122.023 72.104499,122.023 82.143499,122.023 105.568,144.332 112.539,144.89 119.511,145.447 118.674,60.395398 109.472,61.510898 100.269,62.626298 81.027999,92.743098 72.104499,91.906498 63.180999,91.069998 51.747899,91.069998 51.747899,95.531698 51.747899,99.993498 51.190199,105.571 51.747899,115.888 Z"
     fill="#eca1c5"
     id="path138" />
  <path
     d="M 118.40522,57.105907 C 124.10822,65.556407 132.42522,87.764507 120.06922,108.99351"
     stroke="#ffffff"
     stroke-width="8"
     stroke-linecap="round"
     id="path140" />
  <path
     d="M 39.087319,94.137507 C 39.636519,104.29651 46.501319,100.17851 59.132619,100.17851 69.018019,100.17851 92.084219,122.14551 98.94822,122.69451 105.81322,123.24351 104.99022,39.492807 95.928219,40.591207 86.866219,41.689607 67.919619,71.345707 59.132619,70.522007 50.345619,69.698207 39.087319,69.698207 39.087319,74.091707 39.087319,78.485507 38.538119,83.977507 39.087319,94.137507 Z"
     fill="#ffffff"
     id="path142" />
</svg>
