<svg width="206" height="206" viewBox="0 0 206 206" fill="none" xmlns="http://www.w3.org/2000/svg">
<path d="M165.264 21.7704C134.33 -4.16635 100.591 -5.44304 64.98 10.1123C25.9159 27.0959 -3.51483 55.5521 0.339371 101.496C3.44611 138.318 15.439 169.563 48.1099 191.065C69.9907 205.478 92.8737 208.905 116.759 202.454C138.105 196.676 158.449 187.235 175.72 172.452C223.223 131.816 210.219 59.4851 165.264 21.7704Z" fill="white"/>
</svg>
