<svg width="176" height="176" viewBox="0 0 176 176" fill="none" xmlns="http://www.w3.org/2000/svg">
<path d="M141.135 18.5917C114.718 -3.55803 85.9045 -4.64831 55.4933 8.63582C22.1329 23.1397 -3.00067 47.4411 0.290787 86.6765C2.94392 118.122 13.1857 144.805 41.0864 163.168C59.7724 175.476 79.3143 178.403 99.712 172.894C117.942 167.959 135.315 159.897 150.065 147.273C190.632 112.57 179.526 50.7998 141.135 18.5917Z" fill="#F5EBDE"/>
<path d="M112.98 66C117.926 73.3288 125.139 92.589 114.423 111" stroke="#FFCE52" stroke-width="8" stroke-linecap="round"/>
<path d="M44.1922 98.1152C44.6684 106.927 50.622 103.354 61.5766 103.354C70.1498 103.354 90.1538 122.406 96.1074 122.882C102.061 123.358 101.347 50.7247 93.4878 51.6773C85.629 52.6298 69.1972 78.3493 61.5766 77.6349C53.956 76.9205 44.1922 76.9205 44.1922 80.7308C44.1922 84.541 43.7159 89.3039 44.1922 98.1152Z" fill="#FFCE52"/>
</svg>
