<svg width="168" height="169" viewBox="0 0 168 169" fill="none" xmlns="http://www.w3.org/2000/svg">
<path d="M167.007 134.916C166.651 151.985 153.207 165.886 136.254 166.676C86.4639 168.995 56.2655 169.198 30.562 167.59C14.9714 166.615 2.89559 153.823 1.94091 138.138C-0.385791 99.9131 -0.76431 70.8432 1.59342 33.4156C2.6253 17.035 15.9516 4.26711 32.2423 3.34653C75.0267 0.928782 108.931 -1.54974 140.53 1.22337C155.684 2.55324 166.626 15.6856 166.995 30.983C167.77 63.0717 167.926 90.9416 167.007 134.916Z" fill="#F5EBDE"/>
</svg>
