<?xml version="1.0" encoding="UTF-8" standalone="no"?><!-- Created with Inkscape (http://www.inkscape.org/) -->

<svg width="298.05624mm" height="15.915592mm" viewBox="0 0 298.05624 15.915592" version="1.1"
    id="svg5" xml:space="preserve" xmlns="http://www.w3.org/2000/svg">
  <defs id="defs2" />
    <g id="layer1" transform="translate(0.4479498,-2.3882937)"><g
       id="g2820"
       transform="matrix(1,0,0,-1,0,210.66421)"><g
         id="g2810"
         transform="translate(0.75746599,-7.0696825)"><path
           id="path2808"
           style="display:inline;fill:#fffcd3;fill-opacity:1;stroke-width:0.14896"
           d="M 19.06508,207.19023 C 17.039165,206.84141 15.131617,206.1917 11.319139,204.55201 6.7098374,202.56962 3.2611275,201.68772 0.10986829,201.68559 L -1.1935353,201.68472 V 201.01439 200.34407 H -0.24458709 C 1.1582643,200.34407 5.4359068,199.21395 7.3295719,199.46692 8.3566745,199.60413 10.377503,199.99254 11.770283,200.53685 17.230295,202.67066 18.765625,203.9534 21.563259,204.79302 24.582189,205.69906 27.331126,205.98007 33.39859,203.99485 40.670565,201.61553 41.919943,200.0172 46.11502,200.01425 50.860306,200.01091 50.666981,201.11262 61.819058,203.90828 70.623978,206.11554 73.756886,205.90055 78.794484,204.86528 84.249882,203.74416 84.147537,204.24459 91.495908,201.83382 98.851357,199.42072 100.56772,199.53457 103.85962,199.52142 106.96811,199.509 110.53635,200.15722 115.94456,201.744 121.1662,203.27605 123.04036,203.77016 127.2263,204.50059 130.92871,205.14664 132.34278,206.08285 136.19553,204.50188 137.11722,204.12367 139.34684,203.07175 140.26853,202.69332 142.9126,201.60772 144.72094,200.34407 146.88389,200.34407 H 147.76687 V 201.00367 201.66328 L 147.01856,202.58308 C 145.10888,204.93039 143.59245,204.74846 140.258,206.13365 134.29648,208.61015 129.79332,207.13239 125.72073,207.00173 122.06934,206.88459 120.58914,206.49489 113.43723,203.7678 109.91882,202.4262 108.42082,202.09641 105.83452,202.09403 102.7469,202.09121 100.30775,202.61789 94.29009,204.58681 86.533425,207.12471 84.905229,207.43209 79.915772,207.30047 75.418382,207.18182 73.796463,207.91705 63.695107,205.38775 54.158189,202.99977 51.442541,201.5671 46.490773,201.72887 42.267062,201.86686 41.976033,203.54727 35.067583,205.81133 30.290251,207.37697 27.034668,206.58872 25.023497,206.97268 23.495272,207.26443 20.195714,207.3849 19.06508,207.19023 Z M 167.46369,207.19023 C 165.43778,206.84141 163.53023,206.1917 159.71775,204.55201 155.10845,202.56962 151.65974,201.68772 148.50848,201.68559 L 147.20507,201.68472 V 201.01439 200.34407 L 148.47865,200.05551 C 149.53016,199.81727 152.6579,199.31212 154.53788,199.64727 155.49371,199.81767 158.14241,200.62538 159.5557,201.11397 163.53686,202.49031 165.74244,202.91342 168.77156,203.85521 171.79215,204.79434 174.5755,206.26863 180.64296,204.28341 187.91494,201.90409 188.44292,200.05327 192.638,200.05032 197.38328,200.04698 199.13773,200.35515 210.28981,203.15081 219.09473,205.35807 220.89071,206.64655 225.93065,205.62275 228.60867,205.07874 232.25759,204.60528 239.60596,202.19451 246.96141,199.78141 249.14669,199.57064 252.43859,199.55749 255.54708,199.54507 259.43079,199.35574 264.63173,201.52759 270.71904,204.06959 271.79968,203.98658 274.72318,204.50059 278.42475,205.15139 280.1282,205.75822 283.72846,204.93471 284.69966,204.71257 287.13227,203.61279 288.05397,203.23436 290.69804,202.14876 293.11955,200.34407 295.28251,200.34407 L 296.67047,200.38014 296.85082,201.14795 296.77868,201.8797 295.74181,202.65522 C 293.31862,204.46764 291.48609,204.17134 288.15164,205.55653 282.19012,208.03303 278.19194,207.13239 274.11935,207.00173 270.46796,206.88459 268.98776,206.49489 261.83585,203.7678 258.31744,202.4262 256.81943,202.09641 254.23314,202.09403 251.14552,202.09121 248.70637,202.61789 242.6887,204.58681 234.93204,207.12471 233.30384,207.43209 228.31438,207.30047 223.81699,207.18182 221.97865,208.16953 211.8773,205.64023 202.34038,203.25225 199.84115,201.5671 194.88939,201.72887 190.66567,201.86686 189.9418,204.41295 183.03335,206.67701 178.25602,208.24265 175.43328,206.58872 173.42211,206.97268 171.89388,207.26443 168.59433,207.3849 167.46369,207.19023 Z"
            /></g><g id="g2814"><path
           id="path2812"
           style="display:inline;fill:#0b3b5f;stroke-width:0.264583"
           transform="matrix(0.56299997,0,0,0.56299997,-0.4936749,92.804104)"
           d="M 36.064551,204.86014 C 32.466122,204.24056 29.077937,203.08656 22.306217,200.17414 14.11918,196.65301 7.9935848,195.08658 2.3963211,195.08281 L 0.08121687,195.08125 V 193.89062 192.7 H 1.7667378 C 4.0021025,192.7 8.894888,193.56634 12.144728,194.53757 13.586203,194.96836 16.789655,196.11185 19.263509,197.07864 28.961576,200.86871 31.405604,201.49212 36.593718,201.49916 42.212206,201.50678 46.454194,200.59644 57.231218,197.0703 70.147693,192.84416 73.327844,192.18348 80.779136,192.17824 89.207708,192.17231 92.323952,192.71967 112.13226,197.68532 127.77155,201.60586 130.77874,202.08113 139.91351,202.07598 149.21898,202.07073 151.59988,201.61418 164.65205,197.33216 177.71679,193.04602 180.7654,192.35132 186.61247,192.32796 192.13377,192.3059 194.29106,192.86653 203.52896,196.72418 214.34124,201.23927 217.60606,202.05284 224.97706,202.06888 231.65262,202.08341 235.79474,201.22746 242.63799,198.41934 244.2751,197.74756 246.95401,196.64796 248.59112,195.97579 253.28752,194.04754 259.25437,192.7 263.0962,192.7 H 264.66456 V 193.87158 195.04317 L 263.1432,195.20338 C 257.79797,195.76628 253.91846,196.80718 247.99581,199.26754 237.40697,203.66631 232.73995,204.7574 225.50622,204.52533 219.02063,204.31726 216.3915,203.62507 203.68828,198.78122 197.43889,196.39827 194.77813,195.8125 190.18435,195.80828 184.70013,195.80326 180.36771,196.73875 169.67914,200.23594 155.90176,204.74377 153.00976,205.28973 144.14749,205.05594 136.15923,204.84521 134.17532,204.48536 116.2333,199.99282 99.293836,195.7513 93.573365,194.87235 84.77804,195.15968 77.275888,195.40477 74.132209,196.0831 61.861427,200.10453 53.375935,202.88542 50.220125,203.79174 46.647885,204.47372 43.933453,204.99193 38.072781,205.20592 36.064551,204.86014 Z M 299.65003,204.86014 C 296.0516,204.24056 292.66341,203.08656 285.89169,200.17414 277.70466,196.65301 271.57906,195.08658 265.9818,195.08281 L 263.66669,195.08125 V 193.89062 192.7 H 265.35221 C 267.58758,192.7 272.48036,193.56634 275.7302,194.53757 277.17168,194.96836 280.37513,196.11185 282.84898,197.07864 292.54705,200.86871 294.99108,201.49212 300.17919,201.49916 305.79768,201.50678 310.03967,200.59644 320.81669,197.0703 333.73317,192.84416 336.91332,192.18348 344.36461,192.17824 352.79318,192.17231 355.90943,192.71967 375.71774,197.68532 391.35703,201.60586 394.36422,202.08113 403.49899,202.07598 412.80446,202.07073 415.18536,201.61418 428.23753,197.33216 441.30227,193.04602 444.35088,192.35132 450.19795,192.32796 455.71925,192.3059 457.87654,192.86653 467.11444,196.72418 477.92672,201.23927 481.19154,202.05284 488.56254,202.06888 495.2381,202.08341 499.38022,201.22746 506.22347,198.41934 507.86058,197.74756 510.53949,196.64796 512.1766,195.97579 516.873,194.04754 522.83985,192.7 526.68168,192.7 L 529.21105,192.76407 529.14698,193.80751 529.33918,195.23537 526.72868,195.20338 C 521.3543,195.13752 517.50394,196.80718 511.58129,199.26754 500.99245,203.66631 496.32543,204.7574 489.0917,204.52533 482.60611,204.31726 479.97698,203.62507 467.27376,198.78122 461.02437,196.39827 458.36361,195.8125 453.76983,195.80828 448.28561,195.80326 443.95319,196.73875 433.26462,200.23594 419.48724,204.74377 416.59524,205.28973 407.73297,205.05594 399.74471,204.84521 397.7608,204.48536 379.81878,199.99282 362.87931,195.7513 357.15884,194.87235 348.36352,195.15968 340.86136,195.40477 337.71768,196.0831 325.4469,200.10453 316.96141,202.88542 313.8056,203.79174 310.23336,204.47372 307.51893,204.99193 301.65826,205.20592 299.65003,204.86014 Z"
            /></g><g id="g2818" style="display:inline"><path
           id="path2816"
           style="display:inline;fill:#7db840;stroke-width:0.264583"

           transform="matrix(0.56299997,0,0,0.56299997,-0.4936749,92.804104)"
           d="M 133.56351,202.30785 C 128.36409,201.85203 122.50061,200.64344 109.48643,197.34507 92.441517,193.02514 89.778792,192.58149 80.911427,192.58409 74.961104,192.58583 74.347572,192.63227 71.163727,193.32195 67.287094,194.1617 63.937864,195.13819 56.040593,197.73118 48.976292,200.05069 45.064166,201.05559 41.010937,201.59183 34.965517,202.39164 30.62735,201.71407 22.967676,198.77372 15.705053,195.98579 13.260683,195.12358 10.661784,194.43303 7.7158321,193.65026 3.443008,192.96836 1.4702794,192.96614 L 0.08121687,192.96458 V 186.91998 180.87537 L 1.9994461,180.45513 C 5.6778445,179.64926 8.5936527,179.39776 12.516634,179.54799 18.591776,179.78063 23.510648,181.05143 31.434343,184.43541 38.8994,187.62353 42.953007,188.6596 48.955602,188.91371 56.100011,189.21615 60.078027,188.32896 71.832737,183.81155 80.395183,180.52095 83.844289,179.77158 88.847054,180.11492 93.765262,180.45245 98.220858,181.53038 108.42809,184.85206 121.43319,189.08425 124.79628,189.70586 133.27185,189.44405 140.95609,189.20668 144.39746,188.58062 160.55101,184.48134 177.81895,180.09926 180.771,179.61881 190.44893,179.61532 199.83754,179.61194 201.95138,180.02266 215.58435,184.49914 229.29208,189.00018 234.44126,189.98728 240.44295,189.26457 244.10987,188.823 246.51389,188.06752 253.60787,185.12742 259.15437,182.82867 266.1777,181.25053 266.75603,181.25053 266.87425,181.25053 264.66456,183.71915 264.66456,186.97125 V 192.88417 L 261.95258,193.05747 C 256.92321,193.37887 252.06829,194.71239 245.26724,197.64051 237.40697,201.02466 232.93706,202.17048 226.69685,202.40084 219.10199,202.68121 214.85962,201.69764 203.66776,197.06172 196.00738,193.88862 193.53271,193.11233 189.74748,192.69504 183.68965,192.0272 179.26025,192.89226 165.18122,197.49281 151.93702,201.82058 148.36987,202.5159 139.78122,202.44389 136.94356,202.4201 134.1456,202.35888 133.56351,202.30785 Z M 397.14899,202.30785 C 391.94957,201.85203 386.08609,200.64344 373.07191,197.34507 356.02699,193.02514 353.36427,192.58149 344.4969,192.58409 338.54658,192.58583 337.93305,192.63227 334.7492,193.32195 330.87257,194.1617 327.52334,195.13819 319.62607,197.73118 312.56177,200.05069 308.64964,201.05559 304.59641,201.59183 298.55099,202.39164 294.21283,201.71407 286.55315,198.77372 279.29053,195.98579 276.84616,195.12358 274.24726,194.43303 271.30131,193.65026 267.02848,192.96836 265.05576,192.96614 L 263.66669,192.96458 V 186.91998 L 250.78919,186.51328 265.58492,180.45513 C 269.06976,179.02825 272.17913,179.39776 276.10211,179.54799 282.17725,179.78063 287.09612,181.05143 295.01982,184.43541 302.48488,187.62353 306.53848,188.6596 312.54108,188.91371 319.68549,189.21615 323.6635,188.32896 335.41821,183.81155 343.98066,180.52095 347.42976,179.77158 352.43253,180.11492 357.35074,180.45245 361.80633,181.53038 372.01357,184.85206 385.01867,189.08425 388.38176,189.70586 396.85733,189.44405 404.54157,189.20668 407.98294,188.58062 424.13649,184.48134 441.40443,180.09926 444.35648,179.61881 454.03441,179.61532 463.42302,179.61194 465.53686,180.02266 479.16983,184.49914 492.87756,189.00018 498.02674,189.98728 504.02843,189.26457 507.69535,188.823 510.09937,188.06752 517.19335,185.12742 522.73985,182.82867 528.3537,181.18646 528.93203,181.18646 529.05025,181.18646 529.63994,183.8208 529.14698,187.03532 L 529.08291,192.8201 525.53806,193.05747 C 520.50969,193.39417 515.65377,194.71239 508.85272,197.64051 500.99245,201.02466 496.52254,202.17048 490.28233,202.40084 482.68747,202.68121 478.4451,201.69764 467.25324,197.06172 459.59286,193.88862 457.11819,193.11233 453.33296,192.69504 447.27513,192.0272 442.84573,192.89226 428.7667,197.49281 415.5225,201.82058 411.95535,202.5159 403.3667,202.44389 400.52904,202.4201 397.73108,202.35888 397.14899,202.30785 Z"
           /></g></g></g></svg>
